Caso Programa de MBA
…
Cambio de nombres de columnas

names(Base)<-c("ID","Edad","Sexo","GMAT_Total",
               "Perc_Cuant_GMAT",
               "Perc_Verbal_GMAT","Perc_Gral_GMAT",
               "Prom_Primavera","Prom_Otoo","QRanking",
               "Exp_laboral","Lengua_materna",
                "Salario_Inicial","Grado_Satisfaccin")

Validando la estructura y las estadsticas bsicas

tibble(Base)

## # A tibble: 274 x 14
##       ID  Edad  Sexo GMAT_Total Perc_Cuant_GMAT Perc_Verbal_GMAT Perc_Gral_GMAT
##    <dbl> <dbl> <dbl>      <dbl>           <dbl>            <dbl>          <dbl>
##  1     1    23     2        620              77               87             87
##  2     2    24     1        610              90               71             87
##  3     3    24     1        670              99               78             95
##  4     4    24     1        570              56               81             75
##  5     5    24     2        710              93               98             98
##  6     6    24     1        640              82               89             91
##  7     7    25     1        610              89               74             87
##  8     8    25     2        650              88               89             92
##  9     9    25     1        630              79               91             89
## 10    10    25     1        680              99               81             96
## # ... with 264 more rows, and 7 more variables: Prom_Primavera <dbl>,
## #   Prom_Otoo <dbl>, QRanking <dbl>, Exp_laboral <dbl>, Lengua_materna <dbl>,
## #   Salario_Inicial <dbl>, Grado_Satisfaccin <dbl>
…
